John Curtin’s Stats and Coding Notebook - 2 Bayesian Analyses with rstanarm
…
library(tidyverse)
library(tidymodels)
library(tidyposterior)
library(rstanarm)

Make fake data

set.seed(123456)
auc <- tibble(repeat_id = rep(1:3, each = 10),
              fold_id = rep(1:10, times = 3),
              auc_1 = rnorm(30, .90, .01),
              auc_2 = rnorm(30, .85, .01),
              auc_3 = rnorm(30, .85, .01)) |> print()

# A tibble: 30 × 5
   repeat_id fold_id auc_1 auc_2 auc_3
       <int>   <int> <dbl> <dbl> <dbl>
 1         1       1 0.908 0.841 0.844
 2         1       2 0.897 0.851 0.853
 3         1       3 0.896 0.840 0.851
 4         1       4 0.901 0.823 0.842
 5         1       5 0.923 0.839 0.856
 6         1       6 0.908 0.841 0.848
 7         1       7 0.913 0.866 0.848
 8         1       8 0.925 0.860 0.850
 9         1       9 0.912 0.860 0.845
10         1      10 0.896 0.839 0.843
# ℹ 20 more rows
…
