John Curtin’s Stats and Coding Notebook - 1 Analysis of Repeated Measures in R
…
Rows: 99
Columns: 4
$ study_id <dbl> 600, 600, 600, 101, 101, 101, 102, 102, 102, 100, 100, 100, 1…
$ arm      <chr> "PartnerCHESS", "PartnerCHESS", "PartnerCHESS", "A-CHESS", "A…
$ time     <dbl> 1, 2, 3, 1, 2, 3, 1, 2, 3, 1, 2, 3, 1, 2, 3, 1, 2, 3, 1, 2, 3…
$ hdd      <dbl> 65.0, 59.5, 42.0, 100.0, 100.0, 100.0, 0.0, 0.0, 0.0, 13.6, 1…

d |> print(n = 20)

# A tibble: 99 × 4
   study_id arm           time   hdd
      <dbl> <chr>        <dbl> <dbl>
 1      600 PartnerCHESS     1  65  
 2      600 PartnerCHESS     2  59.5
 3      600 PartnerCHESS     3  42  
 4      101 A-CHESS          1 100  
 5      101 A-CHESS          2 100  
 6      101 A-CHESS          3 100  
 7      102 PartnerCHESS     1   0  
 8      102 PartnerCHESS     2   0  
 9      102 PartnerCHESS     3   0  
10      100 PartnerCHESS     1  13.6
11      100 PartnerCHESS     2   1.4
12      100 PartnerCHESS     3  84.6
13      106 PartnerCHESS     1  64.4
14      106 PartnerCHESS     2  41.9
15      106 PartnerCHESS     3  94.4
16      104 A-CHESS          1 100  
17      104 A-CHESS          2   0  
18      104 A-CHESS          3   0  
19      105 PartnerCHESS     1  23.8
20      105 PartnerCHESS     2   0  
# … with 79 more rows
…
Rows: 33
Columns: 5
$ study_id <dbl> 600, 101, 102, 100, 106, 104, 105, 200, 107, 201, 108, 109, 3…
$ arm      <chr> "PartnerCHESS", "A-CHESS", "PartnerCHESS", "PartnerCHESS", "P…
$ time1    <dbl> 65.0, 100.0, 0.0, 13.6, 64.4, 100.0, 23.8, 100.0, 4.8, 46.6, …
$ time2    <dbl> 59.5, 100.0, 0.0, 1.4, 41.9, 0.0, 0.0, 100.0, 0.0, 50.0, 100.…
$ time3    <dbl> 42.0, 100.0, 0.0, 84.6, 94.4, 0.0, 0.0, 56.1, 0.0, 100.0, 100…

d_wide |> print(n = 20)

# A tibble: 33 × 5
   study_id arm          time1 time2 time3
      <dbl> <chr>        <dbl> <dbl> <dbl>
 1      600 PartnerCHESS  65    59.5  42  
 2      101 A-CHESS      100   100   100  
 3      102 PartnerCHESS   0     0     0  
 4      100 PartnerCHESS  13.6   1.4  84.6
 5      106 PartnerCHESS  64.4  41.9  94.4
 6      104 A-CHESS      100     0     0  
 7      105 PartnerCHESS  23.8   0     0  
 8      200 PartnerCHESS 100   100    56.1
 9      107 A-CHESS        4.8   0     0  
10      201 A-CHESS       46.6  50   100  
11      108 A-CHESS       98.5 100   100  
12      109 A-CHESS       22.2  28.6  30.6
13      300 PartnerCHESS  55.6   0     0  
14      303 PartnerCHESS   0     0     0  
15      310 PartnerCHESS  12.9   3.4   0  
16      402 PartnerCHESS  26.7   0     0  
17      311 A-CHESS        5.1   0     0  
18      308 A-CHESS        0     0     0  
19      304 PartnerCHESS  45     0     0  
20      400 PartnerCHESS  20.6  40.7   0  
# … with 13 more rows
…
Rows: 66
Columns: 5
$ study_id <dbl> 600, 600, 101, 101, 102, 102, 100, 100, 106, 106, 104, 104, 1…
$ arm      <chr> "PartnerCHESS", "PartnerCHESS", "A-CHESS", "A-CHESS", "Partne…
$ time     <dbl> 1, 2, 1, 2, 1, 2, 1, 2, 1, 2, 1, 2, 1, 2, 1, 2, 1, 2, 1, 2, 1…
$ hdd      <dbl> 65.0, 59.5, 100.0, 100.0, 0.0, 0.0, 13.6, 1.4, 64.4, 41.9, 10…
$ time_2v1 <dbl> -0.5, 0.5, -0.5, 0.5, -0.5, 0.5, -0.5, 0.5, -0.5, 0.5, -0.5, …

d2 |> print(n = 20)

# A tibble: 66 × 5
   study_id arm           time   hdd time_2v1
      <dbl> <chr>        <dbl> <dbl>    <dbl>
 1      600 PartnerCHESS     1  65       -0.5
 2      600 PartnerCHESS     2  59.5      0.5
 3      101 A-CHESS          1 100       -0.5
 4      101 A-CHESS          2 100        0.5
 5      102 PartnerCHESS     1   0       -0.5
 6      102 PartnerCHESS     2   0        0.5
 7      100 PartnerCHESS     1  13.6     -0.5
 8      100 PartnerCHESS     2   1.4      0.5
 9      106 PartnerCHESS     1  64.4     -0.5
10      106 PartnerCHESS     2  41.9      0.5
11      104 A-CHESS          1 100       -0.5
12      104 A-CHESS          2   0        0.5
13      105 PartnerCHESS     1  23.8     -0.5
14      105 PartnerCHESS     2   0        0.5
15      200 PartnerCHESS     1 100       -0.5
16      200 PartnerCHESS     2 100        0.5
17      107 A-CHESS          1   4.8     -0.5
18      107 A-CHESS          2   0        0.5
19      201 A-CHESS          1  46.6     -0.5
20      201 A-CHESS          2  50        0.5
# … with 46 more rows
…
Add regressors for helmert contrasts for three level time variable

d <- d |> 
  mutate(time_32v1 = case_match(time,
                                c(1) ~ -2/3,
                                c(2, 3) ~ 1/3),
         time_3v2 = case_match(time, 
                               c(1) ~ 0,
                               c(2) ~ -.5,
                               c(3) ~ .5))

d |> print(n = 20)

# A tibble: 99 × 6
   study_id arm           time   hdd time_32v1 time_3v2
      <dbl> <chr>        <dbl> <dbl>     <dbl>    <dbl>
 1      600 PartnerCHESS     1  65      -0.667      0  
 2      600 PartnerCHESS     2  59.5     0.333     -0.5
 3      600 PartnerCHESS     3  42       0.333      0.5
 4      101 A-CHESS          1 100      -0.667      0  
 5      101 A-CHESS          2 100       0.333     -0.5
 6      101 A-CHESS          3 100       0.333      0.5
 7      102 PartnerCHESS     1   0      -0.667      0  
 8      102 PartnerCHESS     2   0       0.333     -0.5
 9      102 PartnerCHESS     3   0       0.333      0.5
10      100 PartnerCHESS     1  13.6    -0.667      0  
11      100 PartnerCHESS     2   1.4     0.333     -0.5
12      100 PartnerCHESS     3  84.6     0.333      0.5
13      106 PartnerCHESS     1  64.4    -0.667      0  
14      106 PartnerCHESS     2  41.9     0.333     -0.5
15      106 PartnerCHESS     3  94.4     0.333      0.5
16      104 A-CHESS          1 100      -0.667      0  
17      104 A-CHESS          2   0       0.333     -0.5
18      104 A-CHESS          3   0       0.333      0.5
19      105 PartnerCHESS     1  23.8    -0.667      0  
20      105 PartnerCHESS     2   0       0.333     -0.5
# … with 79 more rows
…
